{
  "project_info": {
    "project_number": "648380568339",
    "firebase_url": "https://safar-231521.firebaseio.com",
    "project_id": "safar-231521",
    "storage_bucket": "safar-231521.appspot.com"
  },
  "client": [
    {
      "client_info": {
        "mobilesdk_app_id": "1:648380568339:android:2964d77740a96133",
        "android_client_info": {
          "package_name": "highbar.safar.admin"
        }
      },
      "oauth_client": [
        {
          "client_id": "648380568339-uicf773k0ne0ps0fvjtkhdipase7ner8.apps.googleusercontent.com",
          "client_type": 1,
          "android_info": {
            "package_name": "highbar.safar.admin",
            "certificate_hash": "0fc5556eac59711527943f54d5e9034cf4fcbcdc"
          }
        },
        {
          "client_id": "648380568339-kisj44gtismnmuc0mqrh4eap33hnco2b.apps.googleusercontent.com",
          "client_type": 1,
          "android_info": {
            "package_name": "highbar.safar.admin",
            "certificate_hash": "3635f5f489a08553e1433e7e81ce7b6e73e6093d"
          }
        },
        {
          "client_id": "648380568339-eeopt53bv03dfh6pm7ksctqehrjnpoe7.apps.googleusercontent.com",
          "client_type": 3
        }
      ],
      "api_key": [
        {
          "current_key": "AIzaSyCfZn8vLD7yameBS1OfqonJG_NBYpXmfxU"
        }
      ],
      "services": {
        "appinvite_service": {
          "other_platform_oauth_client": [
            {
              "client_id": "648380568339-eeopt53bv03dfh6pm7ksctqehrjnpoe7.apps.googleusercontent.com",
              "client_type": 3
            }
          ]
        }
      }
    },
    {
      "client_info": {
        "mobilesdk_app_id": "1:648380568339:android:92b91a19239f4349",
        "android_client_info": {
          "package_name": "highbar.safar.client"
        }
      },
      "oauth_client": [
        {
          "client_id": "648380568339-qbqv975cjhedg7a6uqo03p9i3url4ogi.apps.googleusercontent.com",
          "client_type": 1,
          "android_info": {
            "package_name": "highbar.safar.client",
            "certificate_hash": "0fc5556eac59711527943f54d5e9034cf4fcbcdc"
          }
        },
        {
          "client_id": "648380568339-7542cpo84ojqc5cp64admv416mr95tc3.apps.googleusercontent.com",
          "client_type": 1,
          "android_info": {
            "package_name": "highbar.safar.client",
            "certificate_hash": "3635f5f489a08553e1433e7e81ce7b6e73e6093d"
          }
        },
        {
          "client_id": "648380568339-eeopt53bv03dfh6pm7ksctqehrjnpoe7.apps.googleusercontent.com",
          "client_type": 3
        }
      ],
      "api_key": [
        {
          "current_key": "AIzaSyCfZn8vLD7yameBS1OfqonJG_NBYpXmfxU"
        }
      ],
      "services": {
        "appinvite_service": {
          "other_platform_oauth_client": [
            {
              "client_id": "648380568339-eeopt53bv03dfh6pm7ksctqehrjnpoe7.apps.googleusercontent.com",
              "client_type": 3
            }
          ]
        }
      }
    }
  ],
  "configuration_version": "1"
}